^D:\DEV\C++\MIDIBOP\MIDIBOP\MAIN.CPP
/c /ZI /nologo /W3 /WX- /Od /D _DEBUG /D _WINDOWS /D _UNICODE /D UNICODE /Gm /EHsc /RTC1 /MDd /GS /fp:precise /Zc:wchar_t /Zc:forScope /Zc:inline /Fo"X64\DEBUG\\" /Fd"X64\DEBUG\VC140.PDB" /Gd /TP D:\DEV\C++\MIDIBOP\MIDIBOP\MAIN.CPP
^D:\DEV\C++\MIDIBOP\MIDIBOP\MIDIKEYBOARD.CPP
/c /ZI /nologo /W3 /WX- /Od /D _DEBUG /D _WINDOWS /D _UNICODE /D UNICODE /Gm /EHsc /RTC1 /MDd /GS /fp:precise /Zc:wchar_t /Zc:forScope /Zc:inline /Fo"X64\DEBUG\\" /Fd"X64\DEBUG\VC140.PDB" /Gd /TP D:\DEV\C++\MIDIBOP\MIDIBOP\MIDIKEYBOARD.CPP
^D:\DEV\C++\MIDIBOP\MIDIBOP\MIDIMESSAGE.CPP
/c /ZI /nologo /W3 /WX- /Od /D _DEBUG /D _WINDOWS /D _UNICODE /D UNICODE /Gm /EHsc /RTC1 /MDd /GS /fp:precise /Zc:wchar_t /Zc:forScope /Zc:inline /Fo"X64\DEBUG\\" /Fd"X64\DEBUG\VC140.PDB" /Gd /TP D:\DEV\C++\MIDIBOP\MIDIBOP\MIDIMESSAGE.CPP
^D:\DEV\C++\MIDIBOP\MIDIBOP\RTMIDI\RTMIDI.CPP
/c /ZI /nologo /W3 /WX- /Od /D _DEBUG /D _WINDOWS /D _UNICODE /D UNICODE /Gm /EHsc /RTC1 /MDd /GS /fp:precise /Zc:wchar_t /Zc:forScope /Zc:inline /Fo"X64\DEBUG\\" /Fd"X64\DEBUG\VC140.PDB" /Gd /TP D:\DEV\C++\MIDIBOP\MIDIBOP\RTMIDI\RTMIDI.CPP
^D:\DEV\C++\MIDIBOP\MIDIBOP\RTMIDI\RTMIDI_C.CPP
/c /ZI /nologo /W3 /WX- /Od /D _DEBUG /D _WINDOWS /D _UNICODE /D UNICODE /Gm /EHsc /RTC1 /MDd /GS /fp:precise /Zc:wchar_t /Zc:forScope /Zc:inline /Fo"X64\DEBUG\\" /Fd"X64\DEBUG\VC140.PDB" /Gd /TP D:\DEV\C++\MIDIBOP\MIDIBOP\RTMIDI\RTMIDI_C.CPP
