^D:\DEV\C++\MIDIBOP\MIDIBOP\MAIN.CPP|D:\DEV\C++\MIDIBOP\MIDIBOP\MIDIKEYBOARD.CPP|D:\DEV\C++\MIDIBOP\MIDIBOP\MIDIMESSAGE.CPP|D:\DEV\C++\MIDIBOP\MIDIBOP\RTMIDI\RTMIDI.CPP|D:\DEV\C++\MIDIBOP\MIDIBOP\RTMIDI\RTMIDI_C.CPP
D:\DEV\C++\MIDIBOP\MIDIBOP\X64\DEBUG\VC140.PDB
D:\DEV\C++\MIDIBOP\MIDIBOP\X64\DEBUG\VC140.IDB
D:\DEV\C++\MIDIBOP\MIDIBOP\X64\DEBUG\MAIN.OBJ
D:\DEV\C++\MIDIBOP\MIDIBOP\X64\DEBUG\MIDIKEYBOARD.OBJ
D:\DEV\C++\MIDIBOP\MIDIBOP\X64\DEBUG\MIDIMESSAGE.OBJ
D:\DEV\C++\MIDIBOP\MIDIBOP\X64\DEBUG\RTMIDI.OBJ
D:\DEV\C++\MIDIBOP\MIDIBOP\X64\DEBUG\RTMIDI_C.OBJ
^D:\DEV\C++\MIDIBOP\MIDIBOP\MAIN.CPP
D:\DEV\C++\MIDIBOP\MIDIBOP\X64\DEBUG\VC140.PDB
D:\DEV\C++\MIDIBOP\MIDIBOP\X64\DEBUG\VC140.IDB
D:\DEV\C++\MIDIBOP\MIDIBOP\X64\DEBUG\MAIN.OBJ
^D:\DEV\C++\MIDIBOP\MIDIBOP\MIDIKEYBOARD.CPP
D:\DEV\C++\MIDIBOP\MIDIBOP\X64\DEBUG\VC140.PDB
D:\DEV\C++\MIDIBOP\MIDIBOP\X64\DEBUG\VC140.IDB
D:\DEV\C++\MIDIBOP\MIDIBOP\X64\DEBUG\MIDIKEYBOARD.OBJ
^D:\DEV\C++\MIDIBOP\MIDIBOP\MIDIMESSAGE.CPP
D:\DEV\C++\MIDIBOP\MIDIBOP\X64\DEBUG\VC140.PDB
^D:\DEV\C++\MIDIBOP\MIDIBOP\RTMIDI\RTMIDI.CPP
D:\DEV\C++\MIDIBOP\MIDIBOP\X64\DEBUG\VC140.PDB
^D:\DEV\C++\MIDIBOP\MIDIBOP\RTMIDI\RTMIDI_C.CPP
D:\DEV\C++\MIDIBOP\MIDIBOP\X64\DEBUG\VC140.PDB
^D:\DEV\C++\MIDIBOP\MIDIBOP\MAIN.CPP|D:\DEV\C++\MIDIBOP\MIDIBOP\MIDIKEYBOARD.CPP
D:\DEV\C++\MIDIBOP\MIDIBOP\X64\DEBUG\VC140.PDB
D:\DEV\C++\MIDIBOP\MIDIBOP\X64\DEBUG\VC140.IDB
D:\DEV\C++\MIDIBOP\MIDIBOP\X64\DEBUG\MIDIKEYBOARD.OBJ
D:\DEV\C++\MIDIBOP\MIDIBOP\X64\DEBUG\MAIN.OBJ
