^D:\DEV\C++\MIDIBOP\MIDIBOP\MAIN.CPP
/c /ID:\DEV\C++\MIDIBOP\MIDIBOP\RTMIDI /I"D:\DEV\C++\MIDIBOP\SFML-2.3.2-WINDOWS-VC14-32-BIT\SFML-2.3.2\INCLUDE" /ZI /nologo /W3 /WX- /Od /Oy- /D _WINDOWS /D WINDOWS /D _WINDOWS_MM_ /D _DEBUG /D _UNICODE /D UNICODE /D __WINDOWS_MM__ /D __WINDOWS_DS__ /D __LITTLE_ENDIAN__ /D __WINDOWS_ASIO__ /Gm /EHsc /RTC1 /MDd /GS /fp:precise /Zc:wchar_t /Zc:forScope /Zc:inline /Fo"DEBUG\\" /Fd"DEBUG\VC140.PDB" /Gd /TP /analyze- D:\DEV\C++\MIDIBOP\MIDIBOP\MAIN.CPP
^D:\DEV\C++\MIDIBOP\MIDIBOP\MIDIKEYBOARD.CPP
/c /ID:\DEV\C++\MIDIBOP\MIDIBOP\RTMIDI /I"D:\DEV\C++\MIDIBOP\SFML-2.3.2-WINDOWS-VC14-32-BIT\SFML-2.3.2\INCLUDE" /ZI /nologo /W3 /WX- /Od /Oy- /D _WINDOWS /D WINDOWS /D _WINDOWS_MM_ /D _DEBUG /D _UNICODE /D UNICODE /D __WINDOWS_MM__ /D __WINDOWS_DS__ /D __LITTLE_ENDIAN__ /D __WINDOWS_ASIO__ /Gm /EHsc /RTC1 /MDd /GS /fp:precise /Zc:wchar_t /Zc:forScope /Zc:inline /Fo"DEBUG\\" /Fd"DEBUG\VC140.PDB" /Gd /TP /analyze- D:\DEV\C++\MIDIBOP\MIDIBOP\MIDIKEYBOARD.CPP
^D:\DEV\C++\MIDIBOP\MIDIBOP\PIANO.CPP
/c /ID:\DEV\C++\MIDIBOP\MIDIBOP\RTMIDI /I"D:\DEV\C++\MIDIBOP\SFML-2.3.2-WINDOWS-VC14-32-BIT\SFML-2.3.2\INCLUDE" /ZI /nologo /W3 /WX- /Od /Oy- /D _WINDOWS /D WINDOWS /D _WINDOWS_MM_ /D _DEBUG /D _UNICODE /D UNICODE /D __WINDOWS_MM__ /D __WINDOWS_DS__ /D __LITTLE_ENDIAN__ /D __WINDOWS_ASIO__ /Gm /EHsc /RTC1 /MDd /GS /fp:precise /Zc:wchar_t /Zc:forScope /Zc:inline /Fo"DEBUG\\" /Fd"DEBUG\VC140.PDB" /Gd /TP /analyze- D:\DEV\C++\MIDIBOP\MIDIBOP\PIANO.CPP
^D:\DEV\C++\MIDIBOP\MIDIBOP\RTMIDI\RTMIDI.CPP
/c /ID:\DEV\C++\MIDIBOP\MIDIBOP\RTMIDI /I"D:\DEV\C++\MIDIBOP\SFML-2.3.2-WINDOWS-VC14-32-BIT\SFML-2.3.2\INCLUDE" /ZI /nologo /W3 /WX- /Od /Oy- /D _WINDOWS /D WINDOWS /D _WINDOWS_MM_ /D _DEBUG /D _UNICODE /D UNICODE /D __WINDOWS_MM__ /D __WINDOWS_DS__ /D __LITTLE_ENDIAN__ /D __WINDOWS_ASIO__ /Gm /EHsc /RTC1 /MDd /GS /fp:precise /Zc:wchar_t /Zc:forScope /Zc:inline /Fo"DEBUG\\" /Fd"DEBUG\VC140.PDB" /Gd /TP /analyze- D:\DEV\C++\MIDIBOP\MIDIBOP\RTMIDI\RTMIDI.CPP
^D:\DEV\C++\MIDIBOP\MIDIBOP\RTMIDI\RTMIDI_C.CPP
/c /ID:\DEV\C++\MIDIBOP\MIDIBOP\RTMIDI /I"D:\DEV\C++\MIDIBOP\SFML-2.3.2-WINDOWS-VC14-32-BIT\SFML-2.3.2\INCLUDE" /ZI /nologo /W3 /WX- /Od /Oy- /D _WINDOWS /D WINDOWS /D _WINDOWS_MM_ /D _DEBUG /D _UNICODE /D UNICODE /D __WINDOWS_MM__ /D __WINDOWS_DS__ /D __LITTLE_ENDIAN__ /D __WINDOWS_ASIO__ /Gm /EHsc /RTC1 /MDd /GS /fp:precise /Zc:wchar_t /Zc:forScope /Zc:inline /Fo"DEBUG\\" /Fd"DEBUG\VC140.PDB" /Gd /TP /analyze- D:\DEV\C++\MIDIBOP\MIDIBOP\RTMIDI\RTMIDI_C.CPP
^D:\DEV\C++\MIDIBOP\MIDIBOP\MIDIDEVICE.CPP
/c /ID:\DEV\C++\MIDIBOP\MIDIBOP\RTMIDI /I"D:\DEV\C++\MIDIBOP\SFML-2.3.2-WINDOWS-VC14-32-BIT\SFML-2.3.2\INCLUDE" /ZI /nologo /W3 /WX- /Od /Oy- /D _WINDOWS /D WINDOWS /D _WINDOWS_MM_ /D _DEBUG /D _UNICODE /D UNICODE /D __WINDOWS_MM__ /D __WINDOWS_DS__ /D __LITTLE_ENDIAN__ /D __WINDOWS_ASIO__ /Gm /EHsc /RTC1 /MDd /GS /fp:precise /Zc:wchar_t /Zc:forScope /Zc:inline /Fo"DEBUG\\" /Fd"DEBUG\VC140.PDB" /Gd /TP /analyze- D:\DEV\C++\MIDIBOP\MIDIBOP\MIDIDEVICE.CPP
