^D:\DEV\C++\MIDIBOP\MIDIBOP\DEBUG\MAIN.OBJ|D:\DEV\C++\MIDIBOP\MIDIBOP\DEBUG\MIDIDEVICE.OBJ|D:\DEV\C++\MIDIBOP\MIDIBOP\DEBUG\PIANO.OBJ|D:\DEV\C++\MIDIBOP\MIDIBOP\DEBUG\RTMIDI.OBJ|D:\DEV\C++\MIDIBOP\MIDIBOP\DEBUG\RTMIDI_C.OBJ
C:\WINDOWS\GLOBALIZATION\SORTING\SORTDEFAULT.NLS
D:\DEV\C++\MIDIBOP\SFML-2.3.2-WINDOWS-VC14-32-BIT\SFML-2.3.2\LIB\SFML-AUDIO-D.LIB
D:\DEV\C++\MIDIBOP\SFML-2.3.2-WINDOWS-VC14-32-BIT\SFML-2.3.2\LIB\SFML-GRAPHICS-D.LIB
D:\DEV\C++\MIDIBOP\SFML-2.3.2-WINDOWS-VC14-32-BIT\SFML-2.3.2\LIB\SFML-WINDOW-D.LIB
D:\DEV\C++\MIDIBOP\SFML-2.3.2-WINDOWS-VC14-32-BIT\SFML-2.3.2\LIB\SFML-SYSTEM-D.LIB
D:\DEV\C++\MIDIBOP\SFML-2.3.2-WINDOWS-VC14-32-BIT\SFML-2.3.2\LIB\SFML-MAIN-D.LIB
C:\PROGRAM FILES (X86)\WINDOWS KITS\8.1\LIB\WINV6.3\UM\X86\KERNEL32.LIB
C:\PROGRAM FILES (X86)\WINDOWS KITS\8.1\LIB\WINV6.3\UM\X86\USER32.LIB
C:\PROGRAM FILES (X86)\WINDOWS KITS\8.1\LIB\WINV6.3\UM\X86\GDI32.LIB
C:\PROGRAM FILES (X86)\WINDOWS KITS\8.1\LIB\WINV6.3\UM\X86\WINSPOOL.LIB
C:\PROGRAM FILES (X86)\WINDOWS KITS\8.1\LIB\WINV6.3\UM\X86\COMDLG32.LIB
C:\PROGRAM FILES (X86)\WINDOWS KITS\8.1\LIB\WINV6.3\UM\X86\ADVAPI32.LIB
C:\PROGRAM FILES (X86)\WINDOWS KITS\8.1\LIB\WINV6.3\UM\X86\SHELL32.LIB
C:\PROGRAM FILES (X86)\WINDOWS KITS\8.1\LIB\WINV6.3\UM\X86\OLE32.LIB
C:\PROGRAM FILES (X86)\WINDOWS KITS\8.1\LIB\WINV6.3\UM\X86\OLEAUT32.LIB
C:\PROGRAM FILES (X86)\WINDOWS KITS\8.1\LIB\WINV6.3\UM\X86\UUID.LIB
C:\PROGRAM FILES (X86)\WINDOWS KITS\8.1\LIB\WINV6.3\UM\X86\ODBC32.LIB
C:\PROGRAM FILES (X86)\WINDOWS KITS\8.1\LIB\WINV6.3\UM\X86\ODBCCP32.LIB
C:\PROGRAM FILES (X86)\WINDOWS KITS\8.1\LIB\WINV6.3\UM\X86\WINMM.LIB
C:\PROGRAM FILES (X86)\WINDOWS KITS\8.1\LIB\WINV6.3\UM\X86\WSOCK32.LIB
D:\DEV\C++\MIDIBOP\MIDIBOP\DEBUG\MAIN.OBJ
D:\DEV\C++\MIDIBOP\MIDIBOP\DEBUG\MIDIDEVICE.OBJ
D:\DEV\C++\MIDIBOP\MIDIBOP\DEBUG\PIANO.OBJ
D:\DEV\C++\MIDIBOP\MIDIBOP\DEBUG\RTMIDI.OBJ
D:\DEV\C++\MIDIBOP\MIDIBOP\DEBUG\RTMIDI_C.OBJ
C:\WINDOWS\SYSTEM32\TZRES.DLL
D:\PROGRAM FILES (X86)\MICROSOFT VISUAL STUDIO 14.0\VC\LIB\MSVCPRTD.LIB
D:\PROGRAM FILES (X86)\MICROSOFT VISUAL STUDIO 14.0\VC\LIB\MSVCRTD.LIB
D:\PROGRAM FILES (X86)\MICROSOFT VISUAL STUDIO 14.0\VC\LIB\OLDNAMES.LIB
D:\PROGRAM FILES (X86)\MICROSOFT VISUAL STUDIO 14.0\VC\LIB\VCRUNTIMED.LIB
C:\PROGRAM FILES (X86)\WINDOWS KITS\10\LIB\10.0.10240.0\UCRT\X86\UCRTD.LIB
D:\PROGRAM FILES (X86)\MICROSOFT VISUAL STUDIO 14.0\VC\BIN\LINK.EXE
C:\PROGRAM FILES (X86)\WINDOWS KITS\8.1\BIN\X86\RC.EXE
D:\PROGRAM FILES (X86)\MICROSOFT VISUAL STUDIO 14.0\VC\BIN\CVTRES.EXE
