^D:\DEV\C++\MIDIBOP\MIDIBOP\DEBUG\MAIN.OBJ|D:\DEV\C++\MIDIBOP\MIDIBOP\DEBUG\MIDIDEVICE.OBJ|D:\DEV\C++\MIDIBOP\MIDIBOP\DEBUG\PIANO.OBJ|D:\DEV\C++\MIDIBOP\MIDIBOP\DEBUG\RTMIDI.OBJ|D:\DEV\C++\MIDIBOP\MIDIBOP\DEBUG\RTMIDI_C.OBJ
D:\DEV\C++\MIDIBOP\MIDIBOP\DEBUG\MIDIBOP.ILK
D:\DEV\C++\MIDIBOP\MIDIBOP\DEBUG\MIDIBOP.EXE
D:\DEV\C++\MIDIBOP\MIDIBOP\DEBUG\MIDIBOP.PDB
