^D:\DEV\C++\MIDIBOP\MIDIBOP\MIDIMESSAGE.CPP
/c /I"D:\DEV\C++\MIDIBOP\SFML-2.3.2-WINDOWS-VC14-32-BIT\SFML-2.3.2\INCLUDE" /Zi /nologo /W3 /WX- /O2 /Oi /Oy- /GL /D WIN32 /D NDEBUG /D _WINDOWS /D _UNICODE /D UNICODE /D __WINDOWS_MM__ /D __WINDOWS_DS__ /D __LITTLE_ENDIAN__ /D __WINDOWS_ASIO__ /Gm- /EHsc /MD /GS /Gy /fp:precise /Zc:wchar_t /Zc:forScope /Zc:inline /Fo"RELEASE\\" /Fd"RELEASE\VC140.PDB" /Gd /TP /analyze- D:\DEV\C++\MIDIBOP\MIDIBOP\MIDIMESSAGE.CPP
^D:\DEV\C++\MIDIBOP\MIDIBOP\MIDIKEYBOARD.CPP
/c /I"D:\DEV\C++\MIDIBOP\SFML-2.3.2-WINDOWS-VC14-32-BIT\SFML-2.3.2\INCLUDE" /Zi /nologo /W3 /WX- /O2 /Oi /Oy- /GL /D WIN32 /D NDEBUG /D _WINDOWS /D _UNICODE /D UNICODE /D __WINDOWS_MM__ /D __WINDOWS_DS__ /D __LITTLE_ENDIAN__ /D __WINDOWS_ASIO__ /Gm- /EHsc /MD /GS /Gy /fp:precise /Zc:wchar_t /Zc:forScope /Zc:inline /Fo"RELEASE\\" /Fd"RELEASE\VC140.PDB" /Gd /TP /analyze- D:\DEV\C++\MIDIBOP\MIDIBOP\MIDIKEYBOARD.CPP
^D:\DEV\C++\MIDIBOP\MIDIBOP\MAIN.CPP
/c /I"D:\DEV\C++\MIDIBOP\SFML-2.3.2-WINDOWS-VC14-32-BIT\SFML-2.3.2\INCLUDE" /Zi /nologo /W3 /WX- /O2 /Oi /Oy- /GL /D WIN32 /D NDEBUG /D _WINDOWS /D _UNICODE /D UNICODE /D __WINDOWS_MM__ /D __WINDOWS_DS__ /D __LITTLE_ENDIAN__ /D __WINDOWS_ASIO__ /Gm- /EHsc /MD /GS /Gy /fp:precise /Zc:wchar_t /Zc:forScope /Zc:inline /Fo"RELEASE\\" /Fd"RELEASE\VC140.PDB" /Gd /TP /analyze- D:\DEV\C++\MIDIBOP\MIDIBOP\MAIN.CPP
^D:\DEV\C++\MIDIBOP\MIDIBOP\MIDIDEVICE.CPP
/c /I"D:\DEV\C++\MIDIBOP\SFML-2.3.2-WINDOWS-VC14-32-BIT\SFML-2.3.2\INCLUDE" /Zi /nologo /W3 /WX- /O2 /Oi /Oy- /GL /D WIN32 /D NDEBUG /D _WINDOWS /D _UNICODE /D UNICODE /D __WINDOWS_MM__ /D __WINDOWS_DS__ /D __LITTLE_ENDIAN__ /D __WINDOWS_ASIO__ /Gm- /EHsc /MD /GS /Gy /fp:precise /Zc:wchar_t /Zc:forScope /Zc:inline /Fo"RELEASE\\" /Fd"RELEASE\VC140.PDB" /Gd /TP /analyze- D:\DEV\C++\MIDIBOP\MIDIBOP\MIDIDEVICE.CPP
^D:\DEV\C++\MIDIBOP\MIDIBOP\PIANO.CPP
/c /I"D:\DEV\C++\MIDIBOP\SFML-2.3.2-WINDOWS-VC14-32-BIT\SFML-2.3.2\INCLUDE" /Zi /nologo /W3 /WX- /O2 /Oi /Oy- /GL /D WIN32 /D NDEBUG /D _WINDOWS /D _UNICODE /D UNICODE /D __WINDOWS_MM__ /D __WINDOWS_DS__ /D __LITTLE_ENDIAN__ /D __WINDOWS_ASIO__ /Gm- /EHsc /MD /GS /Gy /fp:precise /Zc:wchar_t /Zc:forScope /Zc:inline /Fo"RELEASE\\" /Fd"RELEASE\VC140.PDB" /Gd /TP /analyze- D:\DEV\C++\MIDIBOP\MIDIBOP\PIANO.CPP
^D:\DEV\C++\MIDIBOP\MIDIBOP\RTMIDI\RTMIDI.CPP
/c /I"D:\DEV\C++\MIDIBOP\SFML-2.3.2-WINDOWS-VC14-32-BIT\SFML-2.3.2\INCLUDE" /Zi /nologo /W3 /WX- /O2 /Oi /Oy- /GL /D WIN32 /D NDEBUG /D _WINDOWS /D _UNICODE /D UNICODE /D __WINDOWS_MM__ /D __WINDOWS_DS__ /D __LITTLE_ENDIAN__ /D __WINDOWS_ASIO__ /Gm- /EHsc /MD /GS /Gy /fp:precise /Zc:wchar_t /Zc:forScope /Zc:inline /Fo"RELEASE\\" /Fd"RELEASE\VC140.PDB" /Gd /TP /analyze- D:\DEV\C++\MIDIBOP\MIDIBOP\RTMIDI\RTMIDI.CPP
^D:\DEV\C++\MIDIBOP\MIDIBOP\RTMIDI\RTMIDI_C.CPP
/c /I"D:\DEV\C++\MIDIBOP\SFML-2.3.2-WINDOWS-VC14-32-BIT\SFML-2.3.2\INCLUDE" /Zi /nologo /W3 /WX- /O2 /Oi /Oy- /GL /D WIN32 /D NDEBUG /D _WINDOWS /D _UNICODE /D UNICODE /D __WINDOWS_MM__ /D __WINDOWS_DS__ /D __LITTLE_ENDIAN__ /D __WINDOWS_ASIO__ /Gm- /EHsc /MD /GS /Gy /fp:precise /Zc:wchar_t /Zc:forScope /Zc:inline /Fo"RELEASE\\" /Fd"RELEASE\VC140.PDB" /Gd /TP /analyze- D:\DEV\C++\MIDIBOP\MIDIBOP\RTMIDI\RTMIDI_C.CPP
