^D:\DEV\C++\MIDIBOP\MIDIBOP\RELEASE\MAIN.OBJ
/OUT:"D:\DEV\C++\MIDIBOP\MIDIBOP\RELEASE\MIDIBOP.EXE" /INCREMENTAL:NO /NOLOGO /LIBPATH:"D:\DEV\C++\MIDIBOP\SFML-2.3.2-WINDOWS-VC14-32-BIT\SFML-2.3.2\LIB" "SFML-AUDIO.LIB" "SFML-GRAPHICS.LIB" "SFML-WINDOW.LIB" "SFML-SYSTEM.LIB" "SFML-MAIN.LIB" KERNEL32.LIB USER32.LIB GDI32.LIB WINSPOOL.LIB COMDLG32.LIB ADVAPI32.LIB SHELL32.LIB OLE32.LIB OLEAUT32.LIB UUID.LIB ODBC32.LIB ODBCCP32.LIB /MANIFEST /MANIFESTUAC:"level='asInvoker' uiAccess='false'" /manifest:embed /Debug /PDB:"D:\DEV\C++\MIDIBOP\MIDIBOP\RELEASE\MIDIBOP.PDB" /SUBSYSTEM:WINDOWS /OPT:REF /OPT:ICF /LTCG:incremental /TLBID:1 /DYNAMICBASE /NXCOMPAT /IMPLIB:"D:\DEV\C++\MIDIBOP\MIDIBOP\RELEASE\MIDIBOP.LIB" /MACHINE:X86 /SAFESEH RELEASE\MAIN.OBJ
^D:\DEV\C++\MIDIBOP\MIDIBOP\RELEASE\MAIN.OBJ|D:\DEV\C++\MIDIBOP\MIDIBOP\RELEASE\MIDIDEVICE.OBJ|D:\DEV\C++\MIDIBOP\MIDIBOP\RELEASE\PIANO.OBJ|D:\DEV\C++\MIDIBOP\MIDIBOP\RELEASE\RTMIDI.OBJ|D:\DEV\C++\MIDIBOP\MIDIBOP\RELEASE\RTMIDI_C.OBJ
/OUT:"D:\DEV\C++\MIDIBOP\MIDIBOP\RELEASE\MIDIBOP.EXE" /INCREMENTAL:NO /NOLOGO /LIBPATH:"D:\DEV\C++\MIDIBOP\SFML-2.3.2-WINDOWS-VC14-32-BIT\SFML-2.3.2\LIB" "SFML-AUDIO.LIB" "SFML-GRAPHICS.LIB" "SFML-WINDOW.LIB" "SFML-SYSTEM.LIB" "SFML-MAIN.LIB" KERNEL32.LIB USER32.LIB GDI32.LIB WINSPOOL.LIB COMDLG32.LIB ADVAPI32.LIB SHELL32.LIB OLE32.LIB OLEAUT32.LIB UUID.LIB ODBC32.LIB ODBCCP32.LIB WINMM.LIB WSOCK32.LIB /MANIFEST /MANIFESTUAC:"level='asInvoker' uiAccess='false'" /manifest:embed /Debug /PDB:"D:\DEV\C++\MIDIBOP\MIDIBOP\RELEASE\MIDIBOP.PDB" /SUBSYSTEM:CONSOLE /OPT:REF /OPT:ICF /LTCG:incremental /TLBID:1 /DYNAMICBASE /NXCOMPAT /IMPLIB:"D:\DEV\C++\MIDIBOP\MIDIBOP\RELEASE\MIDIBOP.LIB" /MACHINE:X86 /SAFESEH RELEASE\MAIN.OBJRELEASE\MIDIDEVICE.OBJRELEASE\PIANO.OBJRELEASE\RTMIDI.OBJRELEASE\RTMIDI_C.OBJ
