^D:\DEV\C++\MIDIBOP\MIDIBOP\RELEASE\MAIN.OBJ|D:\DEV\C++\MIDIBOP\MIDIBOP\RELEASE\MIDIDEVICE.OBJ|D:\DEV\C++\MIDIBOP\MIDIBOP\RELEASE\PIANO.OBJ|D:\DEV\C++\MIDIBOP\MIDIBOP\RELEASE\RTMIDI.OBJ|D:\DEV\C++\MIDIBOP\MIDIBOP\RELEASE\RTMIDI_C.OBJ
D:\DEV\C++\MIDIBOP\MIDIBOP\RELEASE\MIDIBOP.EXE
D:\DEV\C++\MIDIBOP\MIDIBOP\RELEASE\MIDIBOP.IPDB
D:\DEV\C++\MIDIBOP\MIDIBOP\RELEASE\MIDIBOP.IOBJ
D:\DEV\C++\MIDIBOP\MIDIBOP\RELEASE\MIDIBOP.PDB
